…
We'll use the data the authors use in this chapter.

``` r
library(AppliedPredictiveModeling)
data(twoClassData)
```

The predictors are stored in the data frame `predictors` and has 208 samples.

``` r
as.tibble(predictors)
```

    ## # A tibble: 208 x 2
    ##    PredictorA PredictorB
    ##  *      <dbl>      <dbl>
    ##  1     0.158      0.161 
    ##  2     0.655      0.492 
    ##  3     0.706      0.633 
    ##  4     0.199      0.0881
    ##  5     0.395      0.415 
    ##  6     0.425      0.299 
    ##  7     0.0658     0.179 
    ##  8     0.309      0.280 
    ##  9     0.165      0.116 
    ## 10     0.106      0.0801
    ## # ... with 198 more rows
…
Now we can create the training set.

``` r
trainPredictors <- predictors[trainingRows, ]
trainClasses <- classes[trainingRows]

as_tibble(trainPredictors)
```

    ## # A tibble: 167 x 2
    ##    PredictorA PredictorB
    ##  *      <dbl>      <dbl>
    ##  1     0.158      0.161 
    ##  2     0.655      0.492 
    ##  3     0.706      0.633 
    ##  4     0.199      0.0881
    ##  5     0.395      0.415 
    ##  6     0.425      0.299 
    ##  7     0.309      0.280 
    ##  8     0.165      0.116 
    ##  9     0.0996     0.0492
    ## 10     0.0847     0.0548
    ## # ... with 157 more rows

And the test set.

``` r
testPredictors <- predictors[-trainingRows, ]
testClasses <- classes[-trainingRows]

as_tibble(testPredictors)
```

    ## # A tibble: 41 x 2
    ##    PredictorA PredictorB
    ##  *      <dbl>      <dbl>
    ##  1     0.0658     0.179 
    ##  2     0.106      0.0801
    ##  3     0.291      0.302 
    ##  4     0.413      0.287 
    ##  5     0.0472     0.0414
    ##  6     0.052      0.115 
    ##  7     0.372      0.214 
    ##  8     0.139      0.174 
    ##  9     0.078      0.156 
    ## 10     0.0948     0.144 
    ## # ... with 31 more rows
…
Resampling
==========

The `caret` package has various functions for data splitting. For example, to use repeated training/test splits, the function `createDataPartition` could be used again with an additional argument named `times` to generate multiple splits. For illustration, we'll generate the information needed for three resampled versions of the training set.

``` r
set.seed(1)
repeatedSplits <- createDataPartition(trainClasses, 
                                      p = 0.8,
                                      times = 3)

as.tibble(repeatedSplits)
```

    ## # A tibble: 135 x 3
    ##    Resample1 Resample2 Resample3
    ##        <int>     <int>     <int>
    ##  1         1         2         4
    ##  2         2         3         5
    ##  3         4         4         6
    ##  4         5         6         7
    ##  5         6         7         8
    ##  6         8         8         9
    ##  7         9         9        11
    ##  8        10        11        13
    ##  9        11        14        14
    ## 10        12        15        15
    ## # ... with 125 more rows
…
Determination of the Tuning Parameters
======================================

Section 4.6 illustrated parameter tuning for a SVM using credit scoring data. Using resampling, a value of the cost parameter was estimated. As discussed in later chapters, the SVM model is characterized by what type of kernel function the model uses. For example, the linear kernel function specifies a linear relationship between the predictors and the function outcome. For the example, a radial basis function (RBF) kernel function was used. The kernel function has an additional tuning parameter associated with it denoted as `σ`, which impacts the smoothness of the decision boundary. Normally, several combinations of both tuning parameters would be evaluated using resampling. However, Caputo et al. (2002) describe an analytical formula that can be used to get reasonable estimates of σ. The `caret` function `train` uses this approach to estimate the kernel parameter, leaving only the cost parameter for tuning.

To tune an SVM model using the credit scroing training set samples, the `train` function can be used. Both the training set predictors and outcome are contained in an R data frame called `GermanCreditTrain`.

``` r
library(caret)
data("GermanCredit")
as_tibble(GermanCredit)
```

    ## # A tibble: 1,000 x 62
    ##    Duration Amount InstallmentRate… ResidenceDurati…   Age NumberExistingC…
    ##       <int>  <int>            <int>            <int> <int>            <int>
    ##  1        6   1169                4                4    67                2
    ##  2       48   5951                2                2    22                1
    ##  3       12   2096                2                3    49                1
    ##  4       42   7882                2                4    45                1
    ##  5       24   4870                3                4    53                2
    ##  6       36   9055                2                4    35                1
    ##  7       24   2835                3                4    53                1
    ##  8       36   6948                2                2    35                1
    ##  9       12   3059                2                4    61                1
    ## 10       30   5234                4                2    28                2
    ## # ... with 990 more rows, and 56 more variables:
    ## #   NumberPeopleMaintenance <int>, Telephone <dbl>, ForeignWorker <dbl>,
    ## #   Class <fct>, CheckingAccountStatus.lt.0 <dbl>,
    ## #   CheckingAccountStatus.0.to.200 <dbl>,
    ## #   CheckingAccountStatus.gt.200 <dbl>, CheckingAccountStatus.none <dbl>,
    ## #   CreditHistory.NoCredit.AllPaid <dbl>,
    ## #   CreditHistory.ThisBank.AllPaid <dbl>, CreditHistory.PaidDuly <dbl>,
    ## #   CreditHistory.Delay <dbl>, CreditHistory.Critical <dbl>,
    ## #   Purpose.NewCar <dbl>, Purpose.UsedCar <dbl>,
…
